{
	"variables": [],
	"info": {
		"name": "rpa-agent",
		"_postman_id": "f4f77445-1ff6-8cee-fcb6-8eb2336dbbc0",
		"description": "",
		"schema": "https://schema.getpostman.com/json/collection/v2.0.0/collection.json"
	},
	"item": [
		{
			"name": "oauth2/token",
			"request": {
				"url": "http://localhost:9090/oauth2/token",
				"method": "POST",
				"header": [
					{
						"key": "Content-Type",
						"value": "application/x-www-form-urlencoded",
						"description": ""
					}
				],
				"body": {
					"mode": "urlencoded",
					"urlencoded": [
						{
							"key": "client_id",
							"value": "consectus-rpa",
							"type": "text",
							"enabled": true
						},
						{
							"key": "grant_type",
							"value": "authorization_code",
							"type": "text",
							"enabled": true
						},
						{
							"key": "code",
							"value": "38a58780-733e-47a2-bc56-32a9a62964de",
							"type": "text",
							"enabled": true
						},
						{
							"key": "verifier_code",
							"value": "abcdefgh-ijklmnop",
							"type": "text",
							"enabled": true
						},
						{
							"key": "code_challenge_method",
							"value": "plain",
							"type": "text",
							"enabled": true
						}
					]
				},
				"description": ""
			},
			"response": []
		},
		{
			"name": "oauth2/verify",
			"request": {
				"url": "http://localhost:9090/oauth2/verify",
				"method": "POST",
				"header": [
					{
						"key": "Authorization",
						"value": "Bearer 821bf832-4047-4a8e-a344-afa03cb1d03a",
						"description": ""
					}
				],
				"body": {
					"mode": "formdata",
					"formdata": []
				},
				"description": ""
			},
			"response": []
		},
		{
			"name": "tasks/get-action-paths",
			"request": {
				"url": "http://localhost:9089/tasks/get-action-paths",
				"method": "POST",
				"header": [
					{
						"key": "Authorization",
						"value": "Bearer 821bf832-4047-4a8e-a344-afa03cb1d03a",
						"description": ""
					}
				],
				"body": {
					"mode": "formdata",
					"formdata": []
				},
				"description": ""
			},
			"response": []
		},
		{
			"name": "tasks/get-action-path-queue",
			"request": {
				"url": "http://localhost:9089/tasks/get-action-path-queue",
				"method": "POST",
				"header": [
					{
						"key": "Authorization",
						"value": "Bearer 821bf832-4047-4a8e-a344-afa03cb1d03a",
						"description": ""
					},
					{
						"key": "Content-Type",
						"value": "application/x-www-form-urlencoded",
						"description": ""
					}
				],
				"body": {
					"mode": "urlencoded",
					"urlencoded": [
						{
							"key": "name",
							"value": "google-search",
							"type": "text",
							"enabled": true
						}
					]
				},
				"description": ""
			},
			"response": []
		},
		{
			"name": "tasks/get-action-path-queue-status",
			"request": {
				"url": "http://localhost:9089/tasks/get-action-path-queue-status",
				"method": "POST",
				"header": [
					{
						"key": "Authorization",
						"value": "Bearer 821bf832-4047-4a8e-a344-afa03cb1d03a",
						"description": ""
					},
					{
						"key": "Content-Type",
						"value": "application/x-www-form-urlencoded",
						"description": ""
					}
				],
				"body": {
					"mode": "urlencoded",
					"urlencoded": [
						{
							"key": "name",
							"value": "google-search",
							"type": "text",
							"enabled": true
						},
						{
							"key": "queue_id",
							"value": "0",
							"type": "text",
							"enabled": true
						}
					]
				},
				"description": ""
			},
			"response": []
		},
		{
			"name": "tasks/execute-action-path",
			"request": {
				"url": "http://localhost:9089/tasks/execute-action-path",
				"method": "POST",
				"header": [
					{
						"key": "Authorization",
						"value": "Bearer 821bf832-4047-4a8e-a344-afa03cb1d03a",
						"description": ""
					},
					{
						"key": "Content-Type",
						"value": "application/x-www-form-urlencoded",
						"description": ""
					}
				],
				"body": {
					"mode": "urlencoded",
					"urlencoded": [
						{
							"key": "name",
							"value": "google-search",
							"type": "text",
							"enabled": true
						},
						{
							"key": "params",
							"value": "{}",
							"type": "text",
							"enabled": true
						}
					]
				},
				"description": ""
			},
			"response": []
		}
	]
}